doc.000001;H
doc.000002;H
doc.000003;H
doc.000004;H
doc.000005;H
doc.000006;H
doc.000007;H
doc.000008;H
doc.000009;H
doc.000010;H
doc.000011;H
doc.000012;H
doc.000013;H
doc.000014;H
doc.000015;H
doc.000016;H
doc.000017;H
doc.000018;H
doc.000019;H
doc.000020;H
doc.000021;H
doc.000022;H
doc.000023;H
doc.000024;H
doc.000025;H
doc.000026;H
doc.000027;H
doc.000028;H
doc.000029;H
doc.000030;H
doc.000031;H
doc.000032;H
doc.000033;H
doc.000034;H
doc.000035;H
doc.000036;H
doc.000037;H
doc.000038;H
doc.000039;H
doc.000040;H
doc.000041;H
doc.000042;H
doc.000043;H
doc.000044;H
doc.000045;H
doc.000046;H
doc.000047;H
doc.000048;H
doc.000049;H
doc.000050;H
doc.000051;H
doc.000052;H
doc.000053;H
doc.000054;H
doc.000055;H
doc.000056;H
doc.000057;H
doc.000058;H
doc.000059;H
doc.000060;H
doc.000061;H
doc.000062;H
doc.000063;H
doc.000064;H
doc.000065;H
doc.000066;H
doc.000067;H
doc.000068;H
doc.000069;H
doc.000070;H
doc.000071;H
doc.000072;H
doc.000073;H
doc.000074;H
doc.000075;H
doc.000076;H
doc.000077;H
doc.000078;H
doc.000079;H
doc.000080;H
doc.000081;H
doc.000082;H
doc.000083;H
doc.000084;H
doc.000085;H
doc.000086;H
doc.000087;H
doc.000088;H
doc.000089;H
doc.000090;H
doc.000091;H
doc.000092;H
doc.000093;H
doc.000094;H
doc.000095;H
doc.000096;H
doc.000097;H
doc.000098;H
doc.000099;H
doc.000100;H
doc.000101;H
doc.000102;H
doc.000103;H
doc.000104;H
doc.000105;H
doc.000106;H
doc.000107;H
doc.000108;H
doc.000109;H
doc.000110;H
doc.000111;H
doc.000112;H
doc.000113;H
doc.000114;H
doc.000115;H
doc.000116;H
doc.000117;H
doc.000118;H
doc.000119;H
doc.000120;H
doc.000121;H
doc.000122;H
doc.000123;H
doc.000124;H
doc.000125;H
doc.000126;H
doc.000127;H
doc.000128;H
doc.000129;H
doc.000130;H
doc.000131;H
doc.000132;H
doc.000133;H
doc.000134;H
doc.000135;H
doc.000136;H
doc.000137;H
doc.000138;H
doc.000139;H
doc.000140;H
doc.000141;H
doc.000142;H
doc.000143;H
doc.000144;H
doc.000145;H
doc.000146;H
doc.000147;H
doc.000148;H
doc.000149;H
doc.000150;H
doc.000151;H
doc.000152;H
doc.000153;H
doc.000154;H
doc.000155;H
doc.000156;H
doc.000157;H
doc.000158;H
doc.000159;H
doc.000160;H
doc.000161;H
doc.000162;H
doc.000163;H
doc.000164;H
doc.000165;H
doc.000166;H
doc.000167;H
doc.000168;H
doc.000169;H
doc.000170;H
doc.000171;H
doc.000172;H
doc.000173;H
doc.000174;H
doc.000175;H
doc.000176;H
doc.000177;H
doc.000178;H
doc.000179;H
doc.000180;H
doc.000181;H
doc.000182;H
doc.000183;H
doc.000184;H
doc.000185;H
doc.000186;H
doc.000187;H
doc.000188;H
doc.000189;H
doc.000190;H
doc.000191;H
doc.000192;H
doc.000193;H
doc.000194;H
doc.000195;H
doc.000196;H
doc.000197;H
doc.000198;H
doc.000199;H
doc.000200;H
doc.000201;H
doc.000202;H
doc.000203;H
doc.000204;H
doc.000205;H
doc.000206;H
doc.000207;H
doc.000208;H
doc.000209;H
doc.000210;H
doc.000211;H
doc.000212;H
doc.000213;H
doc.000214;H
doc.000215;H
doc.000216;H
doc.000217;H
doc.000218;H
doc.000219;H
doc.000220;H
doc.000221;H
doc.000222;H
doc.000223;H
doc.000224;H
doc.000225;H
doc.000226;H
doc.000227;H
doc.000228;H
doc.000229;H
doc.000230;H
doc.000231;H
doc.000232;H
doc.000233;H
doc.000234;H
doc.000235;H
doc.000236;H
doc.000237;H
doc.000238;H
doc.000239;H
doc.000240;H
doc.000241;H
doc.000242;H
doc.000243;H
doc.000244;H
doc.000245;H
doc.000246;H
doc.000247;H
doc.000248;H
doc.000249;H
doc.000250;H
doc.000251;H
doc.000252;H
doc.000253;H
doc.000254;H
doc.000255;H
doc.000256;H
doc.000257;H
doc.000258;H
doc.000259;H
doc.000260;H
doc.000261;H
doc.000262;H
doc.000263;H
doc.000264;H
doc.000265;H
doc.000266;H
doc.000267;H
doc.000268;H
doc.000269;H
doc.000270;H
doc.000271;H
doc.000272;H
doc.000273;H
doc.000274;H
doc.000275;H
doc.000276;H
doc.000277;H
doc.000278;H
doc.000279;H
doc.000280;H
doc.000281;H
doc.000282;H
doc.000283;H
doc.000284;H
doc.000285;H
doc.000286;H
doc.000287;H
doc.000288;H
doc.000289;H
doc.000290;H
doc.000291;H
doc.000292;H
doc.000293;H
doc.000294;H
doc.000295;H
doc.000296;H
doc.000297;H
doc.000298;H
doc.000299;H
doc.000300;H
doc.000301;H
doc.000302;H
doc.000303;H
doc.000304;H
doc.000305;H
doc.000306;H
doc.000307;H
doc.000308;H
doc.000309;H
doc.000310;H
doc.000311;H
doc.000312;H
doc.000313;H
doc.000314;H
doc.000315;H
doc.000316;H
doc.000317;H
doc.000318;H
doc.000319;H
doc.000320;H
doc.000321;H
doc.000322;H
doc.000323;H
doc.000324;H
doc.000325;H
doc.000326;H
doc.000327;H
doc.000328;H
doc.000329;H
doc.000330;H
doc.000331;H
doc.000332;H
doc.000333;H
doc.000334;H
doc.000335;H
doc.000336;H
doc.000337;H
doc.000338;H
doc.000339;H
doc.000340;H
doc.000341;H
doc.000342;H
doc.000343;H
doc.000344;H
doc.000345;H
doc.000346;H
doc.000347;H
doc.000348;H
doc.000349;H
doc.000350;H
doc.000351;H
doc.000352;H
doc.000353;H
doc.000354;H
doc.000355;H
doc.000356;H
doc.000357;H
doc.000358;H
doc.000359;H
doc.000360;H
doc.000361;H
doc.000362;H
doc.000363;H
doc.000364;H
doc.000365;H
doc.000366;H
doc.000367;H
doc.000368;H
doc.000369;H
doc.000370;H
doc.000371;H
doc.000372;H
doc.000373;H
doc.000374;H
doc.000375;H
doc.000376;H
doc.000377;H
doc.000378;H
doc.000379;H
doc.000380;H
doc.000381;H
doc.000382;H
doc.000383;H
doc.000384;H
doc.000385;H
doc.000386;H
doc.000387;H
doc.000388;H
doc.000389;H
doc.000390;H
doc.000391;H
doc.000392;H
doc.000393;H
doc.000394;H
doc.000395;H
doc.000396;H
doc.000397;H
doc.000398;H
doc.000399;H
doc.000400;H
doc.000401;H
doc.000402;H
doc.000403;H
doc.000404;H
doc.000405;H
doc.000406;H
doc.000407;H
doc.000408;H
doc.000409;H
doc.000410;H
doc.000411;H
doc.000412;H
doc.000413;H
doc.000414;H
doc.000415;H
doc.000416;H
doc.000417;H
doc.000418;H
doc.000419;H
doc.000420;H
doc.000421;H
doc.000422;H
doc.000423;H
doc.000424;H
doc.000425;H
doc.000426;H
doc.000427;H
doc.000428;H
doc.000429;H
doc.000430;H
doc.000431;H
doc.000432;H
doc.000433;H
doc.000434;H
doc.000435;H
doc.000436;H
doc.000437;H
doc.000438;H
doc.000439;H
doc.000440;H
doc.000441;H
doc.000442;H
doc.000443;H
doc.000444;H
doc.000445;H
doc.000446;H
doc.000447;H
doc.000448;H
doc.000449;H
doc.000450;H
doc.000451;H
doc.000452;H
doc.000453;H
doc.000454;H
doc.000455;H
doc.000456;H
doc.000457;H
doc.000458;H
doc.000459;H
doc.000460;H
doc.000461;H
doc.000462;H
doc.000463;H
doc.000464;H
doc.000465;H
doc.000466;H
doc.000467;H
doc.000468;H
doc.000469;H
doc.000470;H
doc.000471;H
doc.000472;H
doc.000473;H
doc.000474;H
doc.000475;H
doc.000476;H
doc.000477;H
doc.000478;H
doc.000479;H
doc.000480;H
doc.000481;H
doc.000482;H
doc.000483;H
doc.000484;H
doc.000485;H
doc.000486;H
doc.000487;H
doc.000488;H
doc.000489;H
doc.000490;H
doc.000491;H
doc.000492;H
doc.000493;H
doc.000494;H
doc.000495;Ep
doc.000496;Ec
doc.000497;Em
doc.000498;Ei
doc.000499;Ef
doc.000500;Emu
doc.000501;Ef
doc.000502;Ec
doc.000503;Et
doc.000504;Ef
doc.000505;Ev
doc.000506;Et
doc.000507;Et
doc.000508;Ev
doc.000509;Ep
doc.000510;Ef
doc.000511;Ef
doc.000512;Ea
doc.000513;Er
doc.000514;Er
doc.000515;Er
doc.000516;Er
doc.000517;Em
doc.000518;Ef
doc.000519;Ef
doc.000520;Ep
doc.000521;Ef
doc.000522;Eo
doc.000523;Emm
doc.000524;Ecu
doc.000525;Et
doc.000526;Ef
doc.000527;Es
doc.000528;Ep
doc.000529;Ecu
doc.000530;Eo
doc.000531;Er
doc.000532;Ep
doc.000533;Ea
doc.000534;Ep
doc.000535;Ecu
doc.000536;Ea
doc.000537;Ea
doc.000538;Ecu
doc.000539;Em
doc.000540;Ecu
doc.000541;Ea
doc.000542;Ep
doc.000543;Ep
doc.000544;Ev
doc.000545;Ev
doc.000546;Ev
doc.000547;Ev
doc.000548;Ev
doc.000549;Ep
doc.000550;Emu
doc.000551;Emu
doc.000552;Emu
doc.000553;Et
doc.000554;Eo
doc.000555;Ep
doc.000556;Ef
doc.000557;Ep
doc.000558;Ef
doc.000559;Et
doc.000560;Ef
doc.000561;Ef
doc.000562;Ef
doc.000563;Et
doc.000564;Ef
doc.000565;Ec
doc.000566;Ep
doc.000567;Ef
doc.000568;Er
doc.000569;Er
doc.000570;E
doc.000571;Emu
doc.000572;Er
doc.000573;Ef
doc.000574;Er
doc.000575;Et
doc.000576;Et
doc.000577;Ef
doc.000578;Ef
doc.000579;Et
doc.000580;Ef
doc.000581;Et
doc.000582;Ef
doc.000583;Ef
doc.000584;Et
doc.000585;Ep
doc.000586;Ea
doc.000587;Ecu
doc.000588;Emu
doc.000589;Ecu
doc.000590;Ep
doc.000591;Ef
doc.000592;Emu
doc.000593;Et
doc.000594;Eo
doc.000595;Eo
doc.000596;Eo
doc.000597;Ep
doc.000598;Eo
doc.000599;Ef
doc.000600;Er
doc.000601;Er
doc.000602;Ef
doc.000603;Ecu
doc.000604;Er
doc.000605;Er
doc.000606;Et
doc.000607;Emu
doc.000608;Ef
doc.000609;Ei
doc.000610;Ef
doc.000611;Ef
doc.000612;Ef
doc.000613;Ef
doc.000614;Ef
doc.000615;Ef
doc.000616;Ef
doc.000617;Ei
doc.000618;Ef
doc.000619;Ef
doc.000620;Ef
doc.000621;Ei
doc.000622;Ef
doc.000623;Em
doc.000624;Em
doc.000625;Emu
doc.000626;Ef
doc.000627;Ef
doc.000628;Ec
doc.000629;Ef
doc.000630;Ef
doc.000631;Ecu
doc.000632;Ec
doc.000633;Ec
doc.000634;Et
doc.000635;Et
doc.000636;Ei
doc.000637;Ep
doc.000638;Ep
doc.000639;Emu
doc.000640;Ep
doc.000641;Emu
doc.000642;Emm
doc.000643;Ep
doc.000644;Ep
doc.000645;Ef
doc.000646;Ep
doc.000647;Ef
doc.000648;Ef
doc.000649;Ec
doc.000650;Ef
doc.000651;Ef
doc.000652;Es
doc.000653;Ef
doc.000654;Ef
doc.000655;Er
doc.000656;Ef
doc.000657;Er
doc.000658;Er
doc.000659;Er
doc.000660;Et
doc.000661;Er
doc.000662;Ei
doc.000663;Er
doc.000664;Ev
doc.000665;Ef
doc.000666;Ec
doc.000667;Es
doc.000668;Et
doc.000669;Et
doc.000670;Ei
doc.000671;Ep
doc.000672;Et
doc.000673;Emu
doc.000674;Emu
doc.000675;Ea
doc.000676;Ecu
doc.000677;Ei
doc.000678;Ec
doc.000679;Ecu
doc.000680;Ef
doc.000681;Ef
doc.000682;Eo
doc.000683;Ei
doc.000684;E
doc.000685;Ep
doc.000686;Et
doc.000687;Eo
doc.000688;Ep
doc.000689;Et
doc.000690;Et
doc.000691;Emu
doc.000692;Ecu
doc.000693;Ecu
doc.000694;Ecu
doc.000695;Ecu
doc.000696;Ecu
doc.000697;Emu
doc.000698;Ecu
doc.000699;Ef
doc.000700;Ei
doc.000701;Ea
doc.000702;Ep
doc.000703;Ep
doc.000704;Ef
doc.000705;Er
doc.000706;Et
doc.000707;Er
doc.000708;Er
doc.000709;Et
doc.000710;Ev
doc.000711;Ep
doc.000712;Ef
doc.000713;Et
doc.000714;Ef
doc.000715;Ef
doc.000716;Ev
doc.000717;Ep
doc.000718;Ecu
doc.000719;Ef
doc.000720;Ei
doc.000721;Et
doc.000722;Et
doc.000723;Ef
doc.000724;Ec
doc.000725;Es
doc.000726;Ep
doc.000727;Eo
doc.000728;Ep
doc.000729;Et
doc.000730;Et
doc.000731;Ei
doc.000732;Eo
doc.000733;Eo
doc.000734;Eo
doc.000735;Eo
doc.000736;Ep
doc.000737;Ef
doc.000738;Ep
doc.000739;Et
doc.000740;Em
doc.000741;Et
doc.000742;Ef
doc.000743;Ev
doc.000744;Et
doc.000745;Ep
doc.000746;Ep
doc.000747;Eo
doc.000748;Ep
doc.000749;Ecu
doc.000750;Et
doc.000751;Emu
doc.000752;Et
doc.000753;Em
doc.000754;Eo
doc.000755;Emu
doc.000756;Ep
doc.000757;Ef
doc.000758;Ef
doc.000759;Et
doc.000760;Er
doc.000761;Ef
doc.000762;Ev
doc.000763;Ev
doc.000764;Er
doc.000765;Ef
doc.000766;Ef
doc.000767;Ei
doc.000768;Ecu
doc.000769;Emu
doc.000770;Ef
doc.000771;Ef
doc.000772;Ev
doc.000773;Ep
doc.000774;Emu
doc.000775;Eo
doc.000776;Ef
doc.000777;Emm
doc.000778;Eo
doc.000779;Er
doc.000780;Er
doc.000781;Emu
doc.000782;Emu
doc.000783;Ef
doc.000784;Ecu
doc.000785;Et
doc.000786;Et
doc.000787;Ei
doc.000788;Eo
doc.000789;Ei
doc.000790;Ei
doc.000791;Emu
doc.000792;Er
doc.000793;Ef
doc.000794;Ec
doc.000795;Ef
doc.000796;Ef
doc.000797;Ec
doc.000798;Ec
doc.000799;Ef
doc.000800;Ef
doc.000801;Ef
doc.000802;Et
doc.000803;Ef
doc.000804;Ef
doc.000805;Ep
doc.000806;Ecu
doc.000807;Emu
doc.000808;Et
doc.000809;Ep
doc.000810;Ep
doc.000811;Ev
doc.000812;Ev
doc.000813;Ev
doc.000814;Ev
doc.000815;Emu
doc.000816;Ei
doc.000817;Emu
doc.000818;Ei
doc.000819;Emu
doc.000820;Et
doc.000821;Er
doc.000822;Er
doc.000823;Er
doc.000824;Ef
doc.000825;Ef
doc.000826;Ef
doc.000827;Ef
doc.000828;Ei
doc.000829;Ec
doc.000830;Ec
doc.000831;Ec
doc.000832;Ef
doc.000833;Et
doc.000834;Ef
doc.000835;Ef
doc.000836;Ef
doc.000837;Ef
doc.000838;Es
doc.000839;Emm
doc.000840;Ec
doc.000841;Emm
doc.000842;Et
doc.000843;Ef
doc.000844;Et
doc.000845;Ef
doc.000846;Ef
doc.000847;Et
doc.000848;Et
doc.000849;Ea
doc.000850;Ep
doc.000851;Emu
doc.000852;Ep
doc.000853;Ep
doc.000854;Ef
doc.000855;Eo
doc.000856;Ep
doc.000857;Ep
doc.000858;Ep
doc.000859;Ecu
doc.000860;Ep
doc.000861;Ep
doc.000862;Ep
doc.000863;Er
doc.000864;Er
doc.000865;Ei
doc.000866;Ecu
doc.000867;Et
doc.000868;Et
doc.000869;Et
doc.000870;Ep
doc.000871;Et
doc.000872;Ef
doc.000873;Er
doc.000874;Ecu
doc.000875;Er
doc.000876;Ef
doc.000877;Ef
doc.000878;Es
doc.000879;Ef
doc.000880;Ec
doc.000881;Ef
doc.000882;Ef
doc.000883;Es
doc.000884;Et
doc.000885;Ef
doc.000886;Ef
doc.000887;Et
doc.000888;Et
doc.000889;Et
doc.000890;Ep
doc.000891;Emu
doc.000892;Eo
doc.000893;Ef
doc.000894;Ef
doc.000895;Ep
doc.000896;Ep
doc.000897;Ecu
doc.000898;Ecu
doc.000899;Ep
doc.000900;Ecu
doc.000901;Ecu
doc.000902;Ecu
doc.000903;Ecu
doc.000904;Ecu
doc.000905;Eo
doc.000906;Eo
doc.000907;Ep
doc.000908;Emu
doc.000909;Ei
doc.000910;Emu
doc.000911;Emu
doc.000912;Ep
doc.000913;Ep
doc.000914;Ep
doc.000915;Ep
doc.000916;Ep
doc.000917;Er
doc.000918;Er
doc.000919;Er
doc.000920;Er
doc.000921;Er
doc.000922;Er
doc.000923;Er
doc.000924;Ep
doc.000925;Ep
doc.000926;Ep
doc.000927;Ep
doc.000928;Ep
doc.000929;Ep
doc.000930;Ep
doc.000931;Ep
doc.000932;Ep
doc.000933;Ep
doc.000934;Ev
doc.000935;Ev
doc.000936;Ev
doc.000937;Ev
doc.000938;Emu
doc.000939;Er
doc.000940;Er
doc.000941;Et
doc.000942;Ef
doc.000943;Et
doc.000944;Ef
doc.000945;Ef
doc.000946;Ef
doc.000947;Ei
doc.000948;Ei
doc.000949;Ef
doc.000950;Et
doc.000951;Er
doc.000952;Et
doc.000953;Ep
doc.000954;Ep
doc.000955;Ep
doc.000956;Ep
doc.000957;Ep
doc.000958;Ep
doc.000959;Ef
doc.000960;Ef
doc.000961;Ef
doc.000962;Ec
doc.000963;Ef
doc.000964;Et
doc.000965;Ef
doc.000966;Et
doc.000967;Et
doc.000968;Es
doc.000969;Ep
doc.000970;Ep
doc.000971;Emu
doc.000972;Emu
doc.000973;Ec
doc.000974;Emm
doc.000975;Eo
doc.000976;Em
doc.000977;E
doc.000978;Ev
doc.000979;Ev
doc.000980;Er
doc.000981;Er
doc.000982;Er
doc.000983;Emu
doc.000984;Er
doc.000985;Emu
doc.000986;Ef
doc.000987;Ei
doc.000988;Emu
doc.000989;Er
doc.000990;Er
doc.000991;Ef
doc.000992;Eo
doc.000993;Ecu
doc.000994;Ef
doc.000995;Ec
doc.000996;Ep
doc.000997;Et
doc.000998;Ea
doc.000999;Eo
doc.001000;Eo
doc.001001;Eo
doc.001002;Ei
doc.001003;Ep
doc.001004;Emu
doc.001005;Emu
doc.001006;Er
doc.001007;Er
doc.001008;Er
doc.001009;Er
doc.001010;Et
doc.001011;Ef
doc.001012;Et
doc.001013;Er
doc.001014;Emu
doc.001015;Emu
doc.001016;Ef
doc.001017;Ef
doc.001018;Emu
doc.001019;Emu
doc.001020;Emu
doc.001021;Ef
doc.001022;Emu
doc.001023;Emu
doc.001024;Er
doc.001025;Ef
doc.001026;Ef
doc.001027;Ef
doc.001028;Ef
doc.001029;Ef
doc.001030;Ec
doc.001031;Eo
doc.001032;Ep
doc.001033;Ecu
doc.001034;Ep
doc.001035;Ep
doc.001036;Ef
doc.001037;Ef
doc.001038;Ecu
doc.001039;Et
doc.001040;Ec
doc.001041;Ec
doc.001042;Ep
doc.001043;Et
doc.001044;Ep
doc.001045;Et
doc.001046;Ep
doc.001047;Ep
doc.001048;Ev
doc.001049;Ev
doc.001050;Er
doc.001051;Er
doc.001052;Ei
doc.001053;Er
doc.001054;Ef
doc.001055;Er
doc.001056;Er
doc.001057;Ef
doc.001058;Ef
doc.001059;Ef
doc.001060;Ec
doc.001061;Eo
doc.001062;Ef
doc.001063;Ec
doc.001064;Ef
doc.001065;Ef
doc.001066;Et
doc.001067;Ef
doc.001068;Ef
doc.001069;Ei
doc.001070;Ec
doc.001071;Et
doc.001072;Ec
doc.001073;Et
doc.001074;Et
doc.001075;Ep
doc.001076;Ecu
doc.001077;Ef
doc.001078;Emu
doc.001079;Ef
doc.001080;Ei
doc.001081;Ea
doc.001082;Emu
doc.001083;Ep
doc.001084;Ep
doc.001085;Ep
doc.001086;Ei
doc.001087;Ei
doc.001088;Emu
doc.001089;Ep
doc.001090;Em
doc.001091;Ep
doc.001092;Er
doc.001093;Ei
doc.001094;Ef
doc.001095;Er
doc.001096;Er
doc.001097;Er
doc.001098;Ei
doc.001099;Ep
doc.001100;Ec
doc.001101;Ev
doc.001102;Ev
doc.001103;Ef
doc.001104;Ef
doc.001105;Ef
doc.001106;Ec
doc.001107;Ef
doc.001108;Et
doc.001109;Ef
doc.001110;Ef
doc.001111;Er
doc.001112;Et
doc.001113;Er
doc.001114;Er
doc.001115;Er
doc.001116;Er
doc.001117;Et
doc.001118;Et
doc.001119;Er
doc.001120;Es
doc.001121;Et
doc.001122;Et
doc.001123;Et
doc.001124;Es
doc.001125;Ep
doc.001126;Et
doc.001127;Emu
doc.001128;Emu
doc.001129;Ep
doc.001130;Eo
doc.001131;Emu
doc.001132;Ef
doc.001133;Emu
doc.001134;Ea
doc.001135;Emu
doc.001136;Ei
doc.001137;Emu
doc.001138;Ea
doc.001139;Ea
doc.001140;Emu
doc.001141;Eo
doc.001142;Emu
doc.001143;Ei
doc.001144;Ep
doc.001145;Eo
doc.001146;Ep
doc.001147;Ep
doc.001148;Ep
doc.001149;Ep
doc.001150;Ep
doc.001151;Ep
doc.001152;Ev
doc.001153;Ev
doc.001154;Er
doc.001155;Er
doc.001156;Er
doc.001157;Er
doc.001158;Er
doc.001159;Er
doc.001160;Er
doc.001161;Er
doc.001162;Ecu
doc.001163;Ecu
doc.001164;Ecu
doc.001165;Ecu
doc.001166;Ecu
doc.001167;Er
doc.001168;Er
doc.001169;Et
doc.001170;Emu
doc.001171;Ef
doc.001172;Emu
doc.001173;Et
doc.001174;Ef
doc.001175;Ef
doc.001176;Ef
doc.001177;Ef
doc.001178;Et
doc.001179;Ei
doc.001180;Et
doc.001181;Et
doc.001182;Ei
doc.001183;Ef
doc.001184;Ef
doc.001185;Et
doc.001186;Ef
doc.001187;Ef
doc.001188;Et
doc.001189;Em
doc.001190;Et
doc.001191;Et
doc.001192;Et
doc.001193;Et
doc.001194;Ecu
doc.001195;Ea
doc.001196;Ecu
doc.001197;Em
doc.001198;Ep
doc.001199;Eo
doc.001200;Eo
doc.001201;Ep
doc.001202;Eo
doc.001203;Emu
doc.001204;Ep
doc.001205;Emu
doc.001206;Emm
doc.001207;Ecu
doc.001208;Ecu
doc.001209;Ep
doc.001210;Ep
doc.001211;Ep
doc.001212;Ef
doc.001213;Ev
doc.001214;Ep
doc.001215;Ef
doc.001216;Et
doc.001217;Ec
doc.001218;Ep
doc.001219;Ev
doc.001220;Emu
doc.001221;Emu
doc.001222;Ecu
doc.001223;Emu
doc.001224;Er
doc.001225;Er
doc.001226;Er
doc.001227;Eo
doc.001228;Ef
doc.001229;Ei
doc.001230;Ef
doc.001231;Es
doc.001232;Et
doc.001233;Ef
doc.001234;Ef
doc.001235;Eo
doc.001236;Ef
doc.001237;Ef
doc.001238;Et
doc.001239;Ep
doc.001240;Ep
doc.001241;Ep
doc.001242;Ep
doc.001243;Ep
doc.001244;Eo
doc.001245;Emu
doc.001246;Eo
doc.001247;Et
doc.001248;Ecu
doc.001249;Eo
doc.001250;Ep
doc.001251;Ep
doc.001252;Eo
doc.001253;Em
doc.001254;Emu
doc.001255;E
doc.001256;Ei
doc.001257;Em
doc.001258;Ep
doc.001259;Ef
doc.001260;Emu
doc.001261;Er
doc.001262;Er
doc.001263;Er
doc.001264;Er
doc.001265;Er
doc.001266;Er
doc.001267;Et
doc.001268;Ef
doc.001269;Ef
doc.001270;Ep
doc.001271;Ev
doc.001272;Et
doc.001273;Ev
doc.001274;Ef
doc.001275;Ef
doc.001276;Et
doc.001277;Et
doc.001278;Ec
doc.001279;Ef
doc.001280;Ef
doc.001281;Ef
doc.001282;Ef
doc.001283;Ef
doc.001284;Et
doc.001285;Ecu
doc.001286;Ecu
doc.001287;Ecu
doc.001288;Et
doc.001289;Ep
doc.001290;Ep
doc.001291;Ep
doc.001292;Eo
doc.001293;Emu
doc.001294;Ei
doc.001295;Emu
doc.001296;Ea
doc.001297;Eo
doc.001298;Emu
doc.001299;Emu
doc.001300;Ecu
doc.001301;Ep
doc.001302;Emu
doc.001303;Ep
doc.001304;Eo
doc.001305;Et
doc.001306;Ei
doc.001307;Eo
doc.001308;Eo
doc.001309;Ep
doc.001310;Ep
doc.001311;Ep
doc.001312;Ef
doc.001313;Ev
doc.001314;Ev
doc.001315;Ef
doc.001316;Et
doc.001317;Et
doc.001318;Et
doc.001319;Et
doc.001320;Ev
doc.001321;Er
doc.001322;Er
doc.001323;Er
doc.001324;Er
doc.001325;Emu
doc.001326;Emu
doc.001327;Emu
doc.001328;Et
doc.001329;Emu
doc.001330;Ef
doc.001331;Ef
doc.001332;Em
doc.001333;Ef
doc.001334;Ef
doc.001335;Ecu
doc.001336;Ecu
doc.001337;Ei
doc.001338;Ei
doc.001339;Ep
doc.001340;Emu
doc.001341;Ei
doc.001342;Em
doc.001343;Ep
doc.001344;Ep
doc.001345;Ep
doc.001346;Ep
doc.001347;Ec
doc.001348;Emu
doc.001349;Ef
doc.001350;Et
doc.001351;Ei
doc.001352;Ef
doc.001353;Ef
doc.001354;Et
doc.001355;Et
doc.001356;Emu
doc.001357;Emu
doc.001358;Ef
doc.001359;Ef
doc.001360;Emu
doc.001361;Emu
doc.001362;Ef
doc.001363;Et
doc.001364;Et
doc.001365;Et
doc.001366;Ef
doc.001367;Ef
doc.001368;Ef
doc.001369;Ef
doc.001370;Ep
doc.001371;Ep
doc.001372;Ec
doc.001373;Ep
doc.001374;Ep
doc.001375;Ecu
doc.001376;Ep
doc.001377;Ecu
doc.001378;Er
doc.001379;Er
doc.001380;Ef
doc.001381;Er
doc.001382;Er
doc.001383;Ei
doc.001384;Er
doc.001385;Er
doc.001386;Er
doc.001387;Et
doc.001388;Er
doc.001389;Es
doc.001390;Er
doc.001391;Er
doc.001392;Er
doc.001393;Et
doc.001394;Ef
doc.001395;Es
doc.001396;Et
doc.001397;Ep
doc.001398;Ef
doc.001399;Et
doc.001400;Ef
doc.001401;Ef
doc.001402;Ef
doc.001403;Ef
doc.001404;Ev
doc.001405;Ef
doc.001406;Et
doc.001407;Er
doc.001408;Et
doc.001409;Et
doc.001410;Et
doc.001411;Et
doc.001412;Et
doc.001413;Et
doc.001414;Et
doc.001415;Et
doc.001416;Et
doc.001417;Et
doc.001418;Et
doc.001419;Et
doc.001420;Et
doc.001421;Et
doc.001422;Et
doc.001423;Et
doc.001424;Et
doc.001425;Et
doc.001426;Et
doc.001427;Et
doc.001428;Et
doc.001429;Ep
doc.001430;Emu
doc.001431;Emu
doc.001432;Emu
doc.001433;Emu
doc.001434;Ea
doc.001435;Ef
doc.001436;Ep
doc.001437;Em
doc.001438;Em
doc.001439;Ep
doc.001440;Ep
doc.001441;Ei
doc.001442;Ep
doc.001443;Eo
doc.001444;Emu
doc.001445;Ei
doc.001446;Ep
doc.001447;Ep
doc.001448;Emu
doc.001449;Ep
doc.001450;Ep
doc.001451;Er
doc.001452;Er
doc.001453;Er
doc.001454;Er
doc.001455;Er
doc.001456;Er
doc.001457;Er
doc.001458;Er
doc.001459;Er
doc.001460;Ev
doc.001461;Ev
doc.001462;Ev
doc.001463;Er
doc.001464;Ep
doc.001465;Er
doc.001466;Ef
doc.001467;Ep
doc.001468;Ep
doc.001469;Ep
doc.001470;Ev
doc.001471;Ev
doc.001472;Ep
doc.001473;Ef
doc.001474;Ef
doc.001475;Ef
doc.001476;Ei
doc.001477;E
doc.001478;Ef
doc.001479;Ei
doc.001480;Emu
doc.001481;Ecu
doc.001482;Ecu
doc.001483;Ecu
doc.001484;Ecu
doc.001485;Ecu
doc.001486;Ef
doc.001487;Ef
doc.001488;Ef
doc.001489;Emu
doc.001490;Et
doc.001491;Ec
doc.001492;Et
doc.001493;Et
doc.001494;Emu
doc.001495;Et
doc.001496;Emu
doc.001497;Ef
doc.001498;Et
doc.001499;Emm
doc.001500;Ep
doc.001501;Eo
doc.001502;Ep
doc.001503;Ei
doc.001504;Ep
doc.001505;Ep
doc.001506;Emu
doc.001507;Eo
doc.001508;Ea
doc.001509;Ep
doc.001510;Emu
doc.001511;Ea
doc.001512;Es
doc.001513;Ei
doc.001514;Et
doc.001515;Et
doc.001516;Ep
doc.001517;Et
doc.001518;Et
doc.001519;Et
doc.001520;Er
doc.001521;Et
doc.001522;Emm
doc.001523;Et
doc.001524;Et
doc.001525;Ep
doc.001526;Ep
doc.001527;Ep
doc.001528;Ep
doc.001529;Ep
doc.001530;Ef
doc.001531;Ei
doc.001532;Er
doc.001533;Er
doc.001534;Er
doc.001535;Er
doc.001536;Ei
doc.001537;Ei
doc.001538;Ef
doc.001539;Et
doc.001540;Emu
doc.001541;Emu
doc.001542;Emu
doc.001543;Ef
doc.001544;Ec
doc.001545;Ef
doc.001546;Ef
doc.001547;Ec
doc.001548;Ef
doc.001549;Ec
doc.001550;Emm
doc.001551;Ep
doc.001552;Ep
doc.001553;Ep
doc.001554;Ecu
doc.001555;Ecu
doc.001556;Et
doc.001557;Et
doc.001558;Et
doc.001559;Ev
doc.001560;Er
doc.001561;Ef
doc.001562;Er
doc.001563;Er
doc.001564;Er
doc.001565;Er
doc.001566;Er
doc.001567;Er
doc.001568;Eo
doc.001569;Emu
doc.001570;Et
doc.001571;Ef
doc.001572;Ef
doc.001573;Emu
doc.001574;Er
doc.001575;Ef
doc.001576;Ef
doc.001577;Ef
doc.001578;Et
doc.001579;Ef
doc.001580;Ec
doc.001581;Ef
doc.001582;Eo
doc.001583;Ef
doc.001584;Ef
doc.001585;Ef
doc.001586;Et
doc.001587;Et
doc.001588;Ea
doc.001589;Et
doc.001590;Ecu
doc.001591;Eo
doc.001592;Emu
doc.001593;Ei
doc.001594;Ei
doc.001595;Ei
doc.001596;Ei
doc.001597;Ep
doc.001598;Eo
doc.001599;Emu
doc.001600;Ea
doc.001601;E
doc.001602;Eo
doc.001603;Eo
doc.001604;Ep
doc.001605;Ef
doc.001606;Emu
doc.001607;Eo
doc.001608;Ep
doc.001609;Emu
doc.001610;Ecu
doc.001611;Em
doc.001612;Ei
doc.001613;Ep
doc.001614;Ev
doc.001615;Ev
doc.001616;Ev
doc.001617;Ev
doc.001618;Emu
doc.001619;E
doc.001620;Emu
doc.001621;Emu
doc.001622;Et
doc.001623;Et
doc.001624;Ef
doc.001625;Emu
doc.001626;Emu
doc.001627;Ef
doc.001628;Ef
doc.001629;Er
doc.001630;Et
doc.001631;Et
doc.001632;Et
doc.001633;Ef
doc.001634;Ef
doc.001635;Ef
doc.001636;Ef
doc.001637;Et
doc.001638;Ef
doc.001639;Ef
doc.001640;Er
doc.001641;Er
doc.001642;Ef
doc.001643;Ef
doc.001644;Et
doc.001645;Ef
doc.001646;Ea
doc.001647;Ei
doc.001648;Ei
doc.001649;Emm
doc.001650;Ei
doc.001651;Ei
doc.001652;Ep
doc.001653;Emu
doc.001654;Ep
doc.001655;Ep
doc.001656;Ep
doc.001657;Ea
doc.001658;Ef
doc.001659;Ef
doc.001660;Ep
doc.001661;Ep
doc.001662;Ep
doc.001663;Ep
doc.001664;Et
doc.001665;Ep
doc.001666;Ef
doc.001667;Es
doc.001668;Eo
doc.001669;Ep
doc.001670;Ep
doc.001671;Ep
doc.001672;Emu
doc.001673;Emu
doc.001674;Ep
doc.001675;Ei
doc.001676;Ef
doc.001677;Ep
doc.001678;Ep
doc.001679;Ep
doc.001680;Ep
doc.001681;Ep
doc.001682;Ei
doc.001683;Er
doc.001684;Er
doc.001685;Er
doc.001686;Er
doc.001687;Es
doc.001688;Es
doc.001689;Ef
doc.001690;Et
doc.001691;Ecu
doc.001692;Ef
doc.001693;Et
doc.001694;Ef
doc.001695;Ef
doc.001696;Er
doc.001697;Ef
doc.001698;Ef
doc.001699;Et
doc.001700;Ef
doc.001701;Et
doc.001702;Ec
doc.001703;Et
doc.001704;Ef
doc.001705;Ef
doc.001706;Ep
doc.001707;Eo
doc.001708;Emu
doc.001709;Emu
doc.001710;Ef
doc.001711;Ep
doc.001712;Ecu
doc.001713;Ef
doc.001714;Ep
doc.001715;Ep
doc.001716;Ep
doc.001717;Ep
doc.001718;Ep
doc.001719;Ep
doc.001720;Ep
doc.001721;Ep
doc.001722;Ep
doc.001723;Ep
doc.001724;Ep
doc.001725;Ep
doc.001726;E
doc.001727;Ep
doc.001728;Eo
doc.001729;Eo
doc.001730;Eo
doc.001731;Emu
doc.001732;Ep
doc.001733;Ep
doc.001734;Ecu
doc.001735;Ep
doc.001736;Ecu
doc.001737;Ef
doc.001738;Ef
doc.001739;Ef
doc.001740;Ep
doc.001741;Ep
doc.001742;Ep
doc.001743;Ep
doc.001744;Ei
doc.001745;Ef
doc.001746;Ev
doc.001747;Ev
doc.001748;Ei
doc.001749;Ei
doc.001750;Et
doc.001751;Ef
doc.001752;Ef
doc.001753;Ef
doc.001754;Ef
doc.001755;Ev
doc.001756;Ev
doc.001757;Er
doc.001758;Er
doc.001759;Er
doc.001760;Ef
doc.001761;Er
doc.001762;Er
doc.001763;Er
doc.001764;Er
doc.001765;Emu
doc.001766;Emm
doc.001767;Emm
doc.001768;Emu
doc.001769;Emu
doc.001770;Ef
doc.001771;Ef
doc.001772;Ecu
doc.001773;Ecu
doc.001774;Ecu
doc.001775;Ecu
doc.001776;Ep
doc.001777;Em
doc.001778;Ep
doc.001779;Ep
doc.001780;Ep
doc.001781;Ecu
doc.001782;Er
doc.001783;Ef
doc.001784;Ef
doc.001785;Et
doc.001786;Emu
doc.001787;Ec
doc.001788;Ep
doc.001789;Emu
doc.001790;Ep
doc.001791;Eo
doc.001792;Emm
doc.001793;Ep
doc.001794;Ep
doc.001795;Ea
doc.001796;Ep
doc.001797;Et
doc.001798;Ep
doc.001799;Ef
doc.001800;Ep
doc.001801;Ep
doc.001802;Ep
doc.001803;Ep
doc.001804;Ef
doc.001805;Et
doc.001806;Ei
doc.001807;Ef
doc.001808;Ep
doc.001809;Ep
doc.001810;Ep
doc.001811;Ep
doc.001812;Emu
doc.001813;Ep
doc.001814;Er
doc.001815;Er
doc.001816;Er
doc.001817;Er
doc.001818;Er
doc.001819;Er
doc.001820;Et
doc.001821;Ef
doc.001822;Ef
doc.001823;Ef
doc.001824;Et
doc.001825;Ef
doc.001826;Ep
doc.001827;Eo
doc.001828;Emu
doc.001829;Et
doc.001830;Ep
doc.001831;Ep
doc.001832;Ep
doc.001833;Et
doc.001834;Ep
doc.001835;Ep
doc.001836;Ep
doc.001837;Ep
doc.001838;Et
doc.001839;Emu
doc.001840;Et
doc.001841;Ec
doc.001842;Ec
doc.001843;Et
doc.001844;Ef
doc.001845;Emu
doc.001846;Emu
doc.001847;Ep
doc.001848;Ep
doc.001849;Ef
doc.001850;Ev
doc.001851;Ef
doc.001852;Ep
doc.001853;Ep
doc.001854;Ep
doc.001855;Ei
doc.001856;Ef
doc.001857;Ev
doc.001858;Er
doc.001859;Ef
doc.001860;Ef
doc.001861;Er
doc.001862;Er
doc.001863;Er
doc.001864;Er
doc.001865;Er
doc.001866;Ef
doc.001867;E
doc.001868;Es
doc.001869;Ef
doc.001870;Et
doc.001871;Et
doc.001872;Et
doc.001873;Ep
doc.001874;Ecu
doc.001875;Emu
doc.001876;Ep
doc.001877;Eo
doc.001878;Ep
doc.001879;Ep
doc.001880;Em
doc.001881;Ep
doc.001882;Ec
doc.001883;Em
doc.001884;S
doc.001885;S
doc.001886;S
doc.001887;S
doc.001888;S
doc.001889;S
doc.001890;S
doc.001891;S
doc.001892;S
doc.001893;S
doc.001894;S
doc.001895;S
doc.001896;S
doc.001897;S
doc.001898;S
doc.001899;S
doc.001900;S
doc.001901;S
doc.001902;S
doc.001903;S
doc.001904;S
doc.001905;S
doc.001906;S
doc.001907;S
doc.001908;S
doc.001909;S
doc.001910;S
doc.001911;S
doc.001912;S
doc.001913;S
doc.001914;S
doc.001915;S
doc.001916;S
doc.001917;S
doc.001918;S
doc.001919;S
doc.001920;S
doc.001921;S
doc.001922;S
doc.001923;S
doc.001924;S
doc.001925;S
doc.001926;S
doc.001927;S
doc.001928;S
doc.001929;S
doc.001930;S
doc.001931;S
doc.001932;S
doc.001933;S
doc.001934;S
doc.001935;S
doc.001936;S
doc.001937;S
doc.001938;S
doc.001939;S
doc.001940;S
doc.001941;S
doc.001942;S
doc.001943;S
doc.001944;S
doc.001945;S
doc.001946;S
doc.001947;S
doc.001948;S
doc.001949;S
doc.001950;S
doc.001951;S
doc.001952;S
doc.001953;S
doc.001954;S
doc.001955;S
doc.001956;S
doc.001957;S
doc.001958;S
doc.001959;S
doc.001960;S
doc.001961;S
doc.001962;S
doc.001963;S
doc.001964;S
doc.001965;S
doc.001966;S
doc.001967;S
doc.001968;S
doc.001969;S
doc.001970;S
doc.001971;S
doc.001972;S
doc.001973;S
doc.001974;S
doc.001975;S
doc.001976;S
doc.001977;S
doc.001978;S
doc.001979;S
doc.001980;S
doc.001981;S
doc.001982;S
doc.001983;S
doc.001984;S
doc.001985;S
doc.001986;S
doc.001987;S
doc.001988;S
doc.001989;S
doc.001990;S
doc.001991;S
doc.001992;S
doc.001993;S
doc.001994;S
doc.001995;S
doc.001996;S
doc.001997;S
doc.001998;S
doc.001999;S
doc.002000;S
doc.002001;S
doc.002002;S
doc.002003;S
doc.002004;S
doc.002005;S
doc.002006;S
doc.002007;S
doc.002008;S
doc.002009;S
doc.002010;S
doc.002011;S
doc.002012;S
doc.002013;S
doc.002014;S
doc.002015;S
doc.002016;S
doc.002017;S
doc.002018;S
doc.002019;S
doc.002020;S
doc.002021;S
doc.002022;S
doc.002023;S
doc.002024;S
doc.002025;P
doc.002026;P
doc.002027;P
doc.002028;P
doc.002029;P
doc.002030;P
doc.002031;P
doc.002032;P
doc.002033;P
doc.002034;P
doc.002035;P
doc.002036;P
doc.002037;P
doc.002038;P
doc.002039;P
doc.002040;P
doc.002041;P
doc.002042;P
doc.002043;P
doc.002044;P
doc.002045;P
doc.002046;P
doc.002047;P
doc.002048;P
doc.002049;P
doc.002050;P
doc.002051;P
doc.002052;P
doc.002053;P
doc.002054;P
doc.002055;P
doc.002056;P
doc.002057;P
doc.002058;P
doc.002059;P
doc.002060;P
doc.002061;P
doc.002062;P
doc.002063;P
doc.002064;P
doc.002065;P
doc.002066;P
doc.002067;P
doc.002068;P
doc.002069;P
doc.002070;P
doc.002071;P
doc.002072;P
doc.002073;P
doc.002074;P
doc.002075;P
doc.002076;P
doc.002077;P
doc.002078;P
doc.002079;P
doc.002080;P
doc.002081;P
doc.002082;P
doc.002083;P
doc.002084;P
doc.002085;P
doc.002086;P
doc.002087;P
doc.002088;P
doc.002089;P
doc.002090;P
doc.002091;P
doc.002092;P
doc.002093;P
doc.002094;P
doc.002095;P
doc.002096;P
doc.002097;P
doc.002098;P
doc.002099;P
doc.002100;P
doc.002101;P
doc.002102;P
doc.002103;P
doc.002104;P
doc.002105;P
doc.002106;P
doc.002107;P
doc.002108;P
doc.002109;P
doc.002110;P
doc.002111;P
doc.002112;P
doc.002113;P
doc.002114;P
doc.002115;P
doc.002116;P
doc.002117;P
doc.002118;P
doc.002119;P
doc.002120;P
doc.002121;P
doc.002122;P
doc.002123;P
doc.002124;P
doc.002125;P
doc.002126;P
doc.002127;P
doc.002128;P
doc.002129;P
doc.002130;P
doc.002131;P
doc.002132;P
doc.002133;P
doc.002134;P
doc.002135;P
doc.002136;P
doc.002137;P
doc.002138;P
doc.002139;T
doc.002140;T
doc.002141;T
doc.002142;T
doc.002143;T
doc.002144;T
doc.002145;T
doc.002146;T
doc.002147;T
doc.002148;T
doc.002149;T
doc.002150;T
doc.002151;T
doc.002152;T
doc.002153;T
doc.002154;T
doc.002155;T
doc.002156;T
doc.002157;T
doc.002158;T
doc.002159;T
doc.002160;T
doc.002161;T
doc.002162;T
doc.002163;T
doc.002164;T
doc.002165;T
doc.002166;T
doc.002167;T
doc.002168;T
doc.002169;T
doc.002170;T
doc.002171;T
doc.002172;T
doc.002173;T
doc.002174;T
doc.002175;T
doc.002176;T
doc.002177;T
doc.002178;T
doc.002179;T
doc.002180;T
doc.002181;T
doc.002182;T
doc.002183;T
doc.002184;T
doc.002185;T
doc.002186;T
doc.002187;T
doc.002188;T
doc.002189;T
doc.002190;T
doc.002191;T
doc.002192;T
doc.002193;T
doc.002194;T
doc.002195;T
doc.002196;T
doc.002197;T
doc.002198;T
doc.002199;B
doc.002200;B
doc.002201;B
doc.002202;B
doc.002203;B
doc.002204;B
doc.002205;B
doc.002206;B
doc.002207;B
doc.002208;B
doc.002209;B
doc.002210;B
doc.002211;B
doc.002212;B
doc.002213;B
doc.002214;B
doc.002215;B
doc.002216;B
doc.002217;B
doc.002218;B
doc.002219;B
doc.002220;B
doc.002221;B
doc.002222;B
doc.002223;B
doc.002224;B
doc.002225;B
doc.002226;B
doc.002227;B
doc.002228;B
doc.002229;B
doc.002230;B
doc.002231;B
doc.002232;B
doc.002233;B
doc.002234;B
doc.002235;B
doc.002236;B
doc.002237;B
doc.002238;B
doc.002239;B
doc.002240;B
doc.002241;B
doc.002242;B
doc.002243;B
doc.002244;B
doc.002245;B
doc.002246;B
doc.002247;B
doc.002248;B
doc.002249;B
doc.002250;B
doc.002251;B
doc.002252;B
doc.002253;B
doc.002254;B
doc.002255;B
doc.002256;B
doc.002257;B
doc.002258;B
doc.002259;B
doc.002260;B
doc.002261;B
doc.002262;B
doc.002263;B
doc.002264;B
doc.002265;B
doc.002266;B
doc.002267;B
doc.002268;B
doc.002269;B
doc.002270;B
doc.002271;B
doc.002272;B
doc.002273;B
doc.002274;B
doc.002275;B
doc.002276;B
doc.002277;B
doc.002278;B
doc.002279;B
doc.002280;B
doc.002281;B
doc.002282;B
doc.002283;B
doc.002284;B
doc.002285;B
doc.002286;B
doc.002287;B
doc.002288;B
doc.002289;B
doc.002290;B
doc.002291;B
doc.002292;B
doc.002293;B
doc.002294;B
doc.002295;B
doc.002296;B
doc.002297;B
doc.002298;B
doc.002299;B
doc.002300;B
doc.002301;B
doc.002302;B
doc.002303;B
doc.002304;B
doc.002305;B
doc.002306;B
doc.002307;B
doc.002308;B
doc.002309;B
doc.002310;B
doc.002311;B
doc.002312;B
doc.002313;B
doc.002314;B
doc.002315;B
doc.002316;B
doc.002317;B
doc.002318;B
doc.002319;B
doc.002320;B
doc.002321;B
doc.002322;B
doc.002323;B
doc.002324;B
doc.002325;B
doc.002326;B
doc.002327;B
doc.002328;B
doc.002329;B
doc.002330;B
doc.002331;B
doc.002332;B
doc.002333;B
doc.002334;B
doc.002335;B
doc.002336;B
doc.002337;B
doc.002338;B
doc.002339;B
doc.002340;B
